{
  "name": "Country",
  "description": null,
  "parentClass": null,
  "useTraits": null,
  "allowInherit": false,
  "allowVariants": false,
  "showVariants": false,
  "layoutDefinitions": {
    "fieldtype": "panel",
    "labelWidth": 100,
    "layout": null,
    "name": "pimcore_root",
    "type": null,
    "region": null,
    "title": null,
    "width": null,
    "height": null,
    "collapsible": false,
    "collapsed": false,
    "bodyStyle": null,
    "datatype": "layout",
    "permissions": null,
    "childs": [
      {
        "fieldtype": "panel",
        "labelWidth": 100,
        "layout": null,
        "name": "Layout",
        "type": null,
        "region": null,
        "title": "",
        "width": null,
        "height": null,
        "collapsible": false,
        "collapsed": false,
        "bodyStyle": "",
        "datatype": "layout",
        "permissions": null,
        "childs": [
          {
            "fieldtype": "numeric",
            "width": "",
            "defaultValue": null,
            "queryColumnType": "double",
            "columnType": "double",
            "phpdocType": "float",
            "integer": false,
            "unsigned": false,
            "minValue": null,
            "maxValue": null,
            "unique": true,
            "decimalSize": null,
            "decimalPrecision": null,
            "name": "geoNamesId",
            "title": "Geo Names ID",
            "tooltip": "",
            "mandatory": true,
            "noteditable": true,
            "index": true,
            "locked": false,
            "style": "",
            "permissions": null,
            "datatype": "data",
            "relationType": false,
            "invisible": false,
            "visibleGridView": false,
            "visibleSearch": false
          },
          {
            "fieldtype": "input",
            "width": null,
            "queryColumnType": "varchar",
            "columnType": "varchar",
            "columnLength": 190,
            "phpdocType": "string",
            "regex": "",
            "unique": false,
            "showCharCount": false,
            "name": "name",
            "title": "Name",
            "tooltip": "",
            "mandatory": true,
            "noteditable": true,
            "index": true,
            "locked": false,
            "style": "",
            "permissions": null,
            "datatype": "data",
            "relationType": false,
            "invisible": false,
            "visibleGridView": false,
            "visibleSearch": false
          },
          {
            "fieldtype": "input",
            "width": null,
            "queryColumnType": "varchar",
            "columnType": "varchar",
            "columnLength": 190,
            "phpdocType": "string",
            "regex": "[A-Z]{2}",
            "unique": false,
            "showCharCount": false,
            "name": "code",
            "title": "Code",
            "tooltip": "",
            "mandatory": true,
            "noteditable": true,
            "index": false,
            "locked": false,
            "style": "",
            "permissions": null,
            "datatype": "data",
            "relationType": false,
            "invisible": false,
            "visibleGridView": false,
            "visibleSearch": false
          },
          {
            "fieldtype": "input",
            "width": null,
            "queryColumnType": "varchar",
            "columnType": "varchar",
            "columnLength": 190,
            "phpdocType": "string",
            "regex": "",
            "unique": false,
            "showCharCount": false,
            "name": "isoNumeric",
            "title": "ISO Numerisch",
            "tooltip": "",
            "mandatory": true,
            "noteditable": true,
            "index": false,
            "locked": false,
            "style": "",
            "permissions": null,
            "datatype": "data",
            "relationType": false,
            "invisible": false,
            "visibleGridView": false,
            "visibleSearch": false
          },
          {
            "fieldtype": "input",
            "width": null,
            "queryColumnType": "varchar",
            "columnType": "varchar",
            "columnLength": 190,
            "phpdocType": "string",
            "regex": "[A-Z]{3}",
            "unique": false,
            "showCharCount": false,
            "name": "isoAlpha3",
            "title": "ISO Alpha3",
            "tooltip": "",
            "mandatory": true,
            "noteditable": true,
            "index": false,
            "locked": false,
            "style": "",
            "permissions": null,
            "datatype": "data",
            "relationType": false,
            "invisible": false,
            "visibleGridView": false,
            "visibleSearch": false
          },
          {
            "fieldtype": "input",
            "width": null,
            "queryColumnType": "varchar",
            "columnType": "varchar",
            "columnLength": 190,
            "phpdocType": "string",
            "regex": "[A-Z]{2}",
            "unique": false,
            "showCharCount": false,
            "name": "fipsCode",
            "title": "FIPS Code",
            "tooltip": "",
            "mandatory": false,
            "noteditable": true,
            "index": false,
            "locked": false,
            "style": "",
            "permissions": null,
            "datatype": "data",
            "relationType": false,
            "invisible": false,
            "visibleGridView": false,
            "visibleSearch": false
          },
          {
            "fieldtype": "input",
            "width": null,
            "queryColumnType": "varchar",
            "columnType": "varchar",
            "columnLength": 190,
            "phpdocType": "string",
            "regex": "[A-Z]{2}",
            "unique": false,
            "showCharCount": false,
            "name": "continentCode",
            "title": "Kontinent",
            "tooltip": "",
            "mandatory": true,
            "noteditable": true,
            "index": false,
            "locked": false,
            "style": "",
            "permissions": null,
            "datatype": "data",
            "relationType": false,
            "invisible": false,
            "visibleGridView": false,
            "visibleSearch": false
          },
          {
            "fieldtype": "input",
            "width": null,
            "queryColumnType": "varchar",
            "columnType": "varchar",
            "columnLength": 190,
            "phpdocType": "string",
            "regex": "",
            "unique": false,
            "showCharCount": false,
            "name": "continent",
            "title": "Kontinent",
            "tooltip": "",
            "mandatory": true,
            "noteditable": true,
            "index": false,
            "locked": false,
            "style": "",
            "permissions": null,
            "datatype": "data",
            "relationType": false,
            "invisible": false,
            "visibleGridView": false,
            "visibleSearch": false
          },
          {
            "fieldtype": "input",
            "width": null,
            "queryColumnType": "varchar",
            "columnType": "varchar",
            "columnLength": 190,
            "phpdocType": "string",
            "regex": "",
            "unique": false,
            "showCharCount": false,
            "name": "capital",
            "title": "Hauptstadt",
            "tooltip": "",
            "mandatory": false,
            "noteditable": true,
            "index": false,
            "locked": false,
            "style": "",
            "permissions": null,
            "datatype": "data",
            "relationType": false,
            "invisible": false,
            "visibleGridView": false,
            "visibleSearch": false
          },
          {
            "fieldtype": "numeric",
            "width": "",
            "defaultValue": null,
            "queryColumnType": "double",
            "columnType": "double",
            "phpdocType": "float",
            "integer": false,
            "unsigned": true,
            "minValue": null,
            "maxValue": null,
            "unique": false,
            "decimalSize": 11,
            "decimalPrecision": 1,
            "name": "areaInSqKm",
            "title": "Fl\u00e4che",
            "tooltip": "in km",
            "mandatory": false,
            "noteditable": true,
            "index": false,
            "locked": false,
            "style": "",
            "permissions": null,
            "datatype": "data",
            "relationType": false,
            "invisible": false,
            "visibleGridView": false,
            "visibleSearch": false
          },
          {
            "fieldtype": "numeric",
            "width": "",
            "defaultValue": null,
            "queryColumnType": "double",
            "columnType": "double",
            "phpdocType": "float",
            "integer": true,
            "unsigned": true,
            "minValue": null,
            "maxValue": null,
            "unique": false,
            "decimalSize": null,
            "decimalPrecision": null,
            "name": "population",
            "title": "Einwohner",
            "tooltip": "",
            "mandatory": true,
            "noteditable": true,
            "index": false,
            "locked": false,
            "style": "",
            "permissions": null,
            "datatype": "data",
            "relationType": false,
            "invisible": false,
            "visibleGridView": false,
            "visibleSearch": false
          },
          {
            "fieldtype": "input",
            "width": null,
            "queryColumnType": "varchar",
            "columnType": "varchar",
            "columnLength": 190,
            "phpdocType": "string",
            "regex": "[A-Z]{3}",
            "unique": false,
            "showCharCount": false,
            "name": "currency",
            "title": "W\u00e4hrung",
            "tooltip": "",
            "mandatory": false,
            "noteditable": true,
            "index": false,
            "locked": false,
            "style": "",
            "permissions": null,
            "datatype": "data",
            "relationType": false,
            "invisible": false,
            "visibleGridView": false,
            "visibleSearch": false
          },
          {
            "fieldtype": "input",
            "width": null,
            "queryColumnType": "varchar",
            "columnType": "varchar",
            "columnLength": 190,
            "phpdocType": "string",
            "regex": "",
            "unique": false,
            "showCharCount": false,
            "name": "languages",
            "title": "Sprachen",
            "tooltip": "",
            "mandatory": false,
            "noteditable": true,
            "index": false,
            "locked": false,
            "style": "",
            "permissions": null,
            "datatype": "data",
            "relationType": false,
            "invisible": false,
            "visibleGridView": false,
            "visibleSearch": false
          },
          {
            "fieldtype": "geobounds",
            "queryColumnType": {
              "NElongitude": "double",
              "NElatitude": "double",
              "SWlongitude": "double",
              "SWlatitude": "double"
            },
            "columnType": {
              "NElongitude": "double",
              "NElatitude": "double",
              "SWlongitude": "double",
              "SWlatitude": "double"
            },
            "phpdocType": "\\Pimcore\\Model\\DataObject\\Data\\Geobounds",
            "lat": 0,
            "lng": 0,
            "zoom": 1,
            "mapType": "roadmap",
            "name": "boundingBox",
            "title": "Bounding Box",
            "tooltip": "",
            "mandatory": false,
            "noteditable": false,
            "index": false,
            "locked": false,
            "style": "",
            "permissions": null,
            "datatype": "data",
            "relationType": false,
            "invisible": false,
            "visibleGridView": false,
            "visibleSearch": false
          }
        ],
        "locked": false
      }
    ],
    "locked": false
  },
  "icon": null,
  "previewUrl": null,
  "group": null,
  "linkGeneratorReference": null
}